%YAML 1.1
%TAG !u! tag:unity3d.com,2011:
--- !u!74 &7400000
AnimationClip:
  m_ObjectHideFlags: 0
  m_CorrespondingSourceObject: {fileID: 0}
  m_PrefabInstance: {fileID: 0}
  m_PrefabAsset: {fileID: 0}
  m_Name: Player_Idle
  serializedVersion: 6
  m_Legacy: 0
  m_Compressed: 0
  m_UseHighQualityCurve: 1
  m_RotationCurves: []
  m_CompressedRotationCurves: []
  m_EulerCurves: []
  m_PositionCurves: []
  m_ScaleCurves: []
  m_FloatCurves: []
  m_PPtrCurves:
  - curve:
    - time: 0
      value: {fileID: -5201452220807846519, guid: 83b37f30b210c7a48862844d87682193,
        type: 3}
    - time: 0.1
      value: {fileID: -8903895817854202930, guid: 83b37f30b210c7a48862844d87682193,
        type: 3}
    - time: 0.2
      value: {fileID: 2766575147800409778, guid: 83b37f30b210c7a48862844d87682193,
        type: 3}
    - time: 0.4
      value: {fileID: 8553274861560461895, guid: 83b37f30b210c7a48862844d87682193,
        type: 3}
    - time: 0.70000005
      value: {fileID: -4772475115287522179, guid: 83b37f30b210c7a48862844d87682193,
        type: 3}
    - time: 0.8
      value: {fileID: -1411660759647357457, guid: 83b37f30b210c7a48862844d87682193,
        type: 3}
    - time: 0.90000004
      value: {fileID: 2275014858176382900, guid: 83b37f30b210c7a48862844d87682193,
        type: 3}
    - time: 1.7833334
      value: {fileID: 2275014858176382900, guid: 83b37f30b210c7a48862844d87682193,
        type: 3}
    attribute: m_Sprite
    path: 
    classID: 212
    script: {fileID: 0}
  m_SampleRate: 60
  m_WrapMode: 2
  m_Bounds:
    m_Center: {x: 0, y: 0, z: 0}
    m_Extent: {x: 0, y: 0, z: 0}
  m_ClipBindingConstant:
    genericBindings:
    - serializedVersion: 2
      path: 0
      attribute: 0
      script: {fileID: 0}
      typeID: 212
      customType: 23
      isPPtrCurve: 1
    pptrCurveMapping:
    - {fileID: -5201452220807846519, guid: 83b37f30b210c7a48862844d87682193, type: 3}
    - {fileID: -8903895817854202930, guid: 83b37f30b210c7a48862844d87682193, type: 3}
    - {fileID: 2766575147800409778, guid: 83b37f30b210c7a48862844d87682193, type: 3}
    - {fileID: 8553274861560461895, guid: 83b37f30b210c7a48862844d87682193, type: 3}
    - {fileID: -4772475115287522179, guid: 83b37f30b210c7a48862844d87682193, type: 3}
    - {fileID: -1411660759647357457, guid: 83b37f30b210c7a48862844d87682193, type: 3}
    - {fileID: 2275014858176382900, guid: 83b37f30b210c7a48862844d87682193, type: 3}
    - {fileID: 2275014858176382900, guid: 83b37f30b210c7a48862844d87682193, type: 3}
  m_AnimationClipSettings:
    serializedVersion: 2
    m_AdditiveReferencePoseClip: {fileID: 0}
    m_AdditiveReferencePoseTime: 0
    m_StartTime: 0
    m_StopTime: 1.8000001
    m_OrientationOffsetY: 0
    m_Level: 0
    m_CycleOffset: 0
    m_HasAdditiveReferencePose: 0
    m_LoopTime: 1
    m_LoopBlend: 1
    m_LoopBlendOrientation: 0
    m_LoopBlendPositionY: 0
    m_LoopBlendPositionXZ: 0
    m_KeepOriginalOrientation: 0
    m_KeepOriginalPositionY: 1
    m_KeepOriginalPositionXZ: 0
    m_HeightFromFeet: 0
    m_Mirror: 0
  m_EditorCurves: []
  m_EulerEditorCurves: []
  m_HasGenericRootTransform: 0
  m_HasMotionFloatCurves: 0
  m_Events: []
