%YAML 1.1
%TAG !u! tag:unity3d.com,2011:
--- !u!114 &11400000
MonoBehaviour:
  m_ObjectHideFlags: 0
  m_CorrespondingSourceObject: {fileID: 0}
  m_PrefabInstance: {fileID: 0}
  m_PrefabAsset: {fileID: 0}
  m_GameObject: {fileID: 0}
  m_Enabled: 1
  m_EditorHideFlags: 0
  m_Script: {fileID: 11500000, guid: d8fcb1b76e149e04db592d80e499b451, type: 3}
  m_Name: Icons
  m_EditorClassIdentifier: 
  ppu: 32
  alignment: 0
  customPivot: {x: 0, y: 0}
  densePacked: 1
  border: 3
  baseName: Icons
  spriteTarget: 
  atlasOutputDirectory: Assets/Art/UI/Atlas
  clipOutputDirectory: Assets/Art/UI/Atlas
  controllerPolicy: 1
  animControllerOutputPath: Assets/Art/UI/Atlas
